{
    "cardTemplateName": "Basic01_props_designerX",
    "rawCardName": "Basic01_props",
    "cardDescription": "Basic01_props",
    "cardInfo": {
        "infoUrl": "",
        "createdBy": "designerX",
        "version": "1.0.1633678565596",
        "external": true,
        "externalData": {
            "width": 375,
            "height": 132,
            "artboard": {
                "width": 375,
                "height": 812
            }
        }
    },
    "props": [
        {
            "name": "fullName",
            "type": "text",
            "defaultValue": "Sherley V"
        },
        {
            "name": "myPhoto",
            "type": "image",
            "defaultValue": "https://images.unsplash.com/photo-1596815074853-84c4949c5b58?crop=entropy&cs=tinysrgb&fit=crop&fm=jpg&h=400&ixid=MnwxfDB8MXxyYW5kb218MHx8cGVyc29ufHx8fHx8MTYzNTkyMTgzMg&ixlib=rb-1.2.1&q=80&utm_campaign=api-credit&utm_medium=referral&utm_source=unsplash_source&w=400"
        }
    ],
    "actions": [],
    "cardAPI": [],
    "styled": {
        "dynamicStyle": []
    }
}